<svg viewBox="0 0 512 512" xmlns="http://www.w3.org/2000/svg" stroke="grey" fill="white">
  <circle cx="240" cy="40" r="20" fill="blue" />
  <text x="240" y="40" dominant-baseline="middle" text-anchor="middle" stroke="none" fill="black">A</text>
  <circle cx="160" cy="80" r="20" fill="blue" />
  <text x="160" y="80" dominant-baseline="middle" text-anchor="middle" stroke="none" fill="black">B</text>
  <circle cx="320" cy="80" r="20" fill="blue" />
  <text x="320" y="80" dominant-baseline="middle" text-anchor="middle" stroke="none" fill="black">C</text>
  <circle cx="240" cy="120" r="20" fill="white" />
  <text x="240" y="120" dominant-baseline="middle" text-anchor="middle" stroke="none" fill="black">D</text>
  <circle cx="160" cy="160" r="20" fill="blue" />
  <text x="160" y="160" dominant-baseline="middle" text-anchor="middle" stroke="none" fill="black">E</text>
  <circle cx="320" cy="160" r="20" fill="blue" />
  <text x="320" y="160" dominant-baseline="middle" text-anchor="middle" stroke="none" fill="black">F</text>
  <circle cx="80" cy="200" r="20" fill="blue" />
  <text x="80" y="200" dominant-baseline="middle" text-anchor="middle" stroke="none" fill="black">G</text>
  <circle cx="240" cy="200" r="20" fill="blue" />
  <text x="240" y="200" dominant-baseline="middle" text-anchor="middle" stroke="none" fill="black">H</text>
  <circle cx="400" cy="200" r="20" fill="blue" />
  <text x="400" y="200" dominant-baseline="middle" text-anchor="middle" stroke="none" fill="black">I</text>
  <circle cx="160" cy="240" r="20" fill="blue" />
  <text x="160" y="240" dominant-baseline="middle" text-anchor="middle" stroke="none" fill="black">J</text>
  <circle cx="320" cy="240" r="20" fill="blue" />
  <text x="320" y="240" dominant-baseline="middle" text-anchor="middle" stroke="none" fill="black">K</text>
  <circle cx="80" cy="280" r="20" fill="orange" />
  <text x="80" y="280" dominant-baseline="middle" text-anchor="middle" stroke="none" fill="black">L</text>
  <circle cx="240" cy="280" r="20" fill="blue" />
  <text x="240" y="280" dominant-baseline="middle" text-anchor="middle" stroke="none" fill="black">M</text>
  <circle cx="400" cy="280" r="20" fill="white" />
  <text x="400" y="280" dominant-baseline="middle" text-anchor="middle" stroke="none" fill="black">N</text>
  <circle cx="160" cy="320" r="20" fill="white" />
  <text x="160" y="320" dominant-baseline="middle" text-anchor="middle" stroke="none" fill="black">O</text>
  <circle cx="320" cy="320" r="20" fill="blue" />
  <text x="320" y="320" dominant-baseline="middle" text-anchor="middle" stroke="none" fill="black">P</text>
  <text x="50%" y="400" dominant-baseline="middle" text-anchor="middle" stroke="none" fill="black" style="font-size: 30px">G➝D / K➝E / C➝K / B➝F / I➝D / A➝H / M➝G➝D / P➝F➝J / L➝H➝A</text>
  <text x="50%" y="440" dominant-baseline="middle" text-anchor="middle" stroke="none" fill="gray" style="font-size: 24px">9 MOVES</text>
</svg>